{
    "data": {
        "_links": {
            "collection": "/api/frameworks/",
            "self": "/api/frameworks/1"
        },
        "description": "A template describing the structure of a Stage Gate framework for DTOceanPlus",
        "id": 1,
        "name": "DTOceanPlus Framework template",
        "stage_gates": [
            "/api/stage-gates/1",
            "/api/stage-gates/2"
        ],
        "stages": [
            "/api/stages/1",
            "/api/stages/2",
            "/api/stages/3"
        ]
    }
}