{
  "consumer": {
    "name": "spey"
  },
  "provider": {
    "name": "ed"
  },
  "interactions": [
    {
      "description": "a request for outputs",
      "providerState": "ed 1 exists",
      "request": {
        "method": "GET",
        "path": "/api/energy-deliv-studies/1/results",
        "matchingRules": {
          "$.path": {
            "match": "regex",
            "regex": "\\/api\\/energy-deliv-studies\\/\\d+\\/results"
          }
        }
      },
      "response": {
        "status": 200,
        "headers": {
        },
        "body": {
          "export_cable_total_length": 1.5,
          "array_cable_total_length": 1.5,
          "array_power_output": [
            1.5
          ],
          "array_reactive_output": [
            1.5
          ],
          "annual_yield": 1.5
        },
        "matchingRules": {
          "$.body": {
            "match": "type"
          },
          "$.body.array_power_output": {
            "min": 1
          },
          "$.body.array_power_output[*].*": {
            "match": "type"
          },
          "$.body.array_reactive_output": {
            "min": 1
          },
          "$.body.array_reactive_output[*].*": {
            "match": "type"
          }
        }
      }
    }
  ],
  "metadata": {
    "pactSpecification": {
      "version": "2.0.0"
    }
  }
}