{
  "consumer": {
    "name": "sg"
  },
  "provider": {
    "name": "spey"
  },
  "interactions": [
    {
      "description": "a request for efficiency",
      "providerState": "spey 1 exists and efficiency results have been saved",
      "request": {
        "method": "GET",
        "path": "/spey/1/efficiency",
        "matchingRules": {
          "$.path": {
            "match": "regex",
            "regex": "\\/spey\\/\\d+\\/efficiency"
          }
        }
      },
      "response": {
        "status": 200,
        "headers": {
        },
        "body": {
          "Inputs_EFF": {
            "annual_captured_energy": {
              "value": 100,
              "Label": "aaa",
              "Unit": "m",
              "Description": "ccc"
            },
            "annual_transformed_energy": {
              "value": 100,
              "Label": "aaa",
              "Unit": "m",
              "Description": "ccc"
            },
            "annual_delivered_energy": {
              "value": 100,
              "Label": "aaa",
              "Unit": "m",
              "Description": "ccc"
            }
          },
          "Outputs_EFF": {
            "array_capt_eff": {
              "value": 0.5,
              "Aggregation-Level": "array",
              "Label": "aaa",
              "Unit": "m",
              "Tag": "aaa",
              "Description": "ccc"
            },
            "array_rel_transf_eff": {
              "value": 0.5,
              "Aggregation-Level": "array",
              "Label": "aaa",
              "Unit": "m",
              "Tag": "aaa",
              "Description": "ccc"
            },
            "array_rel_deliv_eff": {
              "value": 0.5,
              "Aggregation-Level": "array",
              "Label": "aaa",
              "Unit": "m",
              "Tag": "aaa",
              "Description": "ccc"
            }
          }
        },
        "matchingRules": {
          "$.body": {
            "match": "type"
          }
        }
      }
    }
  ],
  "metadata": {
    "pactSpecification": {
      "version": "2.0.0"
    }
  }
}